%YAML 1.1
%TAG !u! tag:unity3d.com,2011:
--- !u!1 &4017764309398526440
GameObject:
  m_ObjectHideFlags: 0
  m_CorrespondingSourceObject: {fileID: 0}
  m_PrefabInstance: {fileID: 0}
  m_PrefabAsset: {fileID: 0}
  serializedVersion: 6
  m_Component:
  - component: {fileID: 4140169296404560524}
  - component: {fileID: 2769543572468074056}
  - component: {fileID: 411612732642686457}
  m_Layer: 31
  m_Name: Layer1
  m_TagString: Untagged
  m_Icon: {fileID: 0}
  m_NavMeshLayer: 0
  m_StaticEditorFlags: 0
  m_IsActive: 1
--- !u!4 &4140169296404560524
Transform:
  m_ObjectHideFlags: 0
  m_CorrespondingSourceObject: {fileID: 0}
  m_PrefabInstance: {fileID: 0}
  m_PrefabAsset: {fileID: 0}
  m_GameObject: {fileID: 4017764309398526440}
  m_LocalRotation: {x: -0, y: -0, z: -0, w: 1}
  m_LocalPosition: {x: 0, y: 0, z: 0}
  m_LocalScale: {x: 1, y: 1, z: 1}
  m_Children: []
  m_Father: {fileID: 7408603461319611281}
  m_RootOrder: 0
  m_LocalEulerAnglesHint: {x: 0, y: 0, z: 0}
--- !u!1839735485 &2769543572468074056
Tilemap:
  m_ObjectHideFlags: 0
  m_CorrespondingSourceObject: {fileID: 0}
  m_PrefabInstance: {fileID: 0}
  m_PrefabAsset: {fileID: 0}
  m_GameObject: {fileID: 4017764309398526440}
  m_Enabled: 1
  m_Tiles:
  - first: {x: 4, y: -6, z: 0}
    second:
      m_TileIndex: 76
      m_TileSpriteIndex: 76
      m_TileMatrixIndex: 0
      m_TileColorIndex: 0
      m_ObjectToInstantiate: {fileID: 0}
      m_TileFlags: 1
      m_ColliderType: 1
  - first: {x: 5, y: -6, z: 0}
    second:
      m_TileIndex: 77
      m_TileSpriteIndex: 77
      m_TileMatrixIndex: 0
      m_TileColorIndex: 0
      m_ObjectToInstantiate: {fileID: 0}
      m_TileFlags: 1
      m_ColliderType: 1
  - first: {x: 6, y: -6, z: 0}
    second:
      m_TileIndex: 78
      m_TileSpriteIndex: 78
      m_TileMatrixIndex: 0
      m_TileColorIndex: 0
      m_ObjectToInstantiate: {fileID: 0}
      m_TileFlags: 1
      m_ColliderType: 1
  - first: {x: 7, y: -6, z: 0}
    second:
      m_TileIndex: 79
      m_TileSpriteIndex: 79
      m_TileMatrixIndex: 0
      m_TileColorIndex: 0
      m_ObjectToInstantiate: {fileID: 0}
      m_TileFlags: 1
      m_ColliderType: 1
  - first: {x: 8, y: -6, z: 0}
    second:
      m_TileIndex: 80
      m_TileSpriteIndex: 80
      m_TileMatrixIndex: 0
      m_TileColorIndex: 0
      m_ObjectToInstantiate: {fileID: 0}
      m_TileFlags: 1
      m_ColliderType: 1
  - first: {x: 9, y: -6, z: 0}
    second:
      m_TileIndex: 81
      m_TileSpriteIndex: 81
      m_TileMatrixIndex: 0
      m_TileColorIndex: 0
      m_ObjectToInstantiate: {fileID: 0}
      m_TileFlags: 1
      m_ColliderType: 1
  - first: {x: 10, y: -6, z: 0}
    second:
      m_TileIndex: 82
      m_TileSpriteIndex: 82
      m_TileMatrixIndex: 0
      m_TileColorIndex: 0
      m_ObjectToInstantiate: {fileID: 0}
      m_TileFlags: 1
      m_ColliderType: 1
  - first: {x: 11, y: -6, z: 0}
    second:
      m_TileIndex: 83
      m_TileSpriteIndex: 83
      m_TileMatrixIndex: 0
      m_TileColorIndex: 0
      m_ObjectToInstantiate: {fileID: 0}
      m_TileFlags: 1
      m_ColliderType: 1
  - first: {x: 12, y: -6, z: 0}
    second:
      m_TileIndex: 84
      m_TileSpriteIndex: 84
      m_TileMatrixIndex: 0
      m_TileColorIndex: 0
      m_ObjectToInstantiate: {fileID: 0}
      m_TileFlags: 1
      m_ColliderType: 1
  - first: {x: -1, y: -5, z: 0}
    second:
      m_TileIndex: 62
      m_TileSpriteIndex: 62
      m_TileMatrixIndex: 0
      m_TileColorIndex: 0
      m_ObjectToInstantiate: {fileID: 0}
      m_TileFlags: 1
      m_ColliderType: 1
  - first: {x: 0, y: -5, z: 0}
    second:
      m_TileIndex: 63
      m_TileSpriteIndex: 63
      m_TileMatrixIndex: 0
      m_TileColorIndex: 0
      m_ObjectToInstantiate: {fileID: 0}
      m_TileFlags: 1
      m_ColliderType: 1
  - first: {x: 1, y: -5, z: 0}
    second:
      m_TileIndex: 64
      m_TileSpriteIndex: 64
      m_TileMatrixIndex: 0
      m_TileColorIndex: 0
      m_ObjectToInstantiate: {fileID: 0}
      m_TileFlags: 1
      m_ColliderType: 1
  - first: {x: 2, y: -5, z: 0}
    second:
      m_TileIndex: 65
      m_TileSpriteIndex: 65
      m_TileMatrixIndex: 0
      m_TileColorIndex: 0
      m_ObjectToInstantiate: {fileID: 0}
      m_TileFlags: 1
      m_ColliderType: 1
  - first: {x: 3, y: -5, z: 0}
    second:
      m_TileIndex: 66
      m_TileSpriteIndex: 66
      m_TileMatrixIndex: 0
      m_TileColorIndex: 0
      m_ObjectToInstantiate: {fileID: 0}
      m_TileFlags: 1
      m_ColliderType: 1
  - first: {x: 4, y: -5, z: 0}
    second:
      m_TileIndex: 67
      m_TileSpriteIndex: 67
      m_TileMatrixIndex: 0
      m_TileColorIndex: 0
      m_ObjectToInstantiate: {fileID: 0}
      m_TileFlags: 1
      m_ColliderType: 1
  - first: {x: 5, y: -5, z: 0}
    second:
      m_TileIndex: 68
      m_TileSpriteIndex: 68
      m_TileMatrixIndex: 0
      m_TileColorIndex: 0
      m_ObjectToInstantiate: {fileID: 0}
      m_TileFlags: 1
      m_ColliderType: 1
  - first: {x: 6, y: -5, z: 0}
    second:
      m_TileIndex: 69
      m_TileSpriteIndex: 69
      m_TileMatrixIndex: 0
      m_TileColorIndex: 0
      m_ObjectToInstantiate: {fileID: 0}
      m_TileFlags: 1
      m_ColliderType: 1
  - first: {x: 7, y: -5, z: 0}
    second:
      m_TileIndex: 70
      m_TileSpriteIndex: 70
      m_TileMatrixIndex: 0
      m_TileColorIndex: 0
      m_ObjectToInstantiate: {fileID: 0}
      m_TileFlags: 1
      m_ColliderType: 1
  - first: {x: 8, y: -5, z: 0}
    second:
      m_TileIndex: 71
      m_TileSpriteIndex: 71
      m_TileMatrixIndex: 0
      m_TileColorIndex: 0
      m_ObjectToInstantiate: {fileID: 0}
      m_TileFlags: 1
      m_ColliderType: 1
  - first: {x: 9, y: -5, z: 0}
    second:
      m_TileIndex: 72
      m_TileSpriteIndex: 72
      m_TileMatrixIndex: 0
      m_TileColorIndex: 0
      m_ObjectToInstantiate: {fileID: 0}
      m_TileFlags: 1
      m_ColliderType: 1
  - first: {x: 10, y: -5, z: 0}
    second:
      m_TileIndex: 73
      m_TileSpriteIndex: 73
      m_TileMatrixIndex: 0
      m_TileColorIndex: 0
      m_ObjectToInstantiate: {fileID: 0}
      m_TileFlags: 1
      m_ColliderType: 1
  - first: {x: 11, y: -5, z: 0}
    second:
      m_TileIndex: 74
      m_TileSpriteIndex: 74
      m_TileMatrixIndex: 0
      m_TileColorIndex: 0
      m_ObjectToInstantiate: {fileID: 0}
      m_TileFlags: 1
      m_ColliderType: 1
  - first: {x: 12, y: -5, z: 0}
    second:
      m_TileIndex: 75
      m_TileSpriteIndex: 75
      m_TileMatrixIndex: 0
      m_TileColorIndex: 0
      m_ObjectToInstantiate: {fileID: 0}
      m_TileFlags: 1
      m_ColliderType: 1
  - first: {x: -1, y: -4, z: 0}
    second:
      m_TileIndex: 50
      m_TileSpriteIndex: 50
      m_TileMatrixIndex: 0
      m_TileColorIndex: 0
      m_ObjectToInstantiate: {fileID: 0}
      m_TileFlags: 1
      m_ColliderType: 1
  - first: {x: 0, y: -4, z: 0}
    second:
      m_TileIndex: 51
      m_TileSpriteIndex: 51
      m_TileMatrixIndex: 0
      m_TileColorIndex: 0
      m_ObjectToInstantiate: {fileID: 0}
      m_TileFlags: 1
      m_ColliderType: 1
  - first: {x: 1, y: -4, z: 0}
    second:
      m_TileIndex: 52
      m_TileSpriteIndex: 52
      m_TileMatrixIndex: 0
      m_TileColorIndex: 0
      m_ObjectToInstantiate: {fileID: 0}
      m_TileFlags: 1
      m_ColliderType: 1
  - first: {x: 2, y: -4, z: 0}
    second:
      m_TileIndex: 53
      m_TileSpriteIndex: 53
      m_TileMatrixIndex: 0
      m_TileColorIndex: 0
      m_ObjectToInstantiate: {fileID: 0}
      m_TileFlags: 1
      m_ColliderType: 1
  - first: {x: 3, y: -4, z: 0}
    second:
      m_TileIndex: 54
      m_TileSpriteIndex: 54
      m_TileMatrixIndex: 0
      m_TileColorIndex: 0
      m_ObjectToInstantiate: {fileID: 0}
      m_TileFlags: 1
      m_ColliderType: 1
  - first: {x: 4, y: -4, z: 0}
    second:
      m_TileIndex: 55
      m_TileSpriteIndex: 55
      m_TileMatrixIndex: 0
      m_TileColorIndex: 0
      m_ObjectToInstantiate: {fileID: 0}
      m_TileFlags: 1
      m_ColliderType: 1
  - first: {x: 5, y: -4, z: 0}
    second:
      m_TileIndex: 56
      m_TileSpriteIndex: 56
      m_TileMatrixIndex: 0
      m_TileColorIndex: 0
      m_ObjectToInstantiate: {fileID: 0}
      m_TileFlags: 1
      m_ColliderType: 1
  - first: {x: 6, y: -4, z: 0}
    second:
      m_TileIndex: 57
      m_TileSpriteIndex: 57
      m_TileMatrixIndex: 0
      m_TileColorIndex: 0
      m_ObjectToInstantiate: {fileID: 0}
      m_TileFlags: 1
      m_ColliderType: 1
  - first: {x: 7, y: -4, z: 0}
    second:
      m_TileIndex: 58
      m_TileSpriteIndex: 58
      m_TileMatrixIndex: 0
      m_TileColorIndex: 0
      m_ObjectToInstantiate: {fileID: 0}
      m_TileFlags: 1
      m_ColliderType: 1
  - first: {x: 8, y: -4, z: 0}
    second:
      m_TileIndex: 59
      m_TileSpriteIndex: 59
      m_TileMatrixIndex: 0
      m_TileColorIndex: 0
      m_ObjectToInstantiate: {fileID: 0}
      m_TileFlags: 1
      m_ColliderType: 1
  - first: {x: 9, y: -4, z: 0}
    second:
      m_TileIndex: 60
      m_TileSpriteIndex: 60
      m_TileMatrixIndex: 0
      m_TileColorIndex: 0
      m_ObjectToInstantiate: {fileID: 0}
      m_TileFlags: 1
      m_ColliderType: 1
  - first: {x: 10, y: -4, z: 0}
    second:
      m_TileIndex: 61
      m_TileSpriteIndex: 61
      m_TileMatrixIndex: 0
      m_TileColorIndex: 0
      m_ObjectToInstantiate: {fileID: 0}
      m_TileFlags: 1
      m_ColliderType: 1
  - first: {x: -1, y: -3, z: 0}
    second:
      m_TileIndex: 38
      m_TileSpriteIndex: 38
      m_TileMatrixIndex: 0
      m_TileColorIndex: 0
      m_ObjectToInstantiate: {fileID: 0}
      m_TileFlags: 1
      m_ColliderType: 1
  - first: {x: 0, y: -3, z: 0}
    second:
      m_TileIndex: 39
      m_TileSpriteIndex: 39
      m_TileMatrixIndex: 0
      m_TileColorIndex: 0
      m_ObjectToInstantiate: {fileID: 0}
      m_TileFlags: 1
      m_ColliderType: 1
  - first: {x: 1, y: -3, z: 0}
    second:
      m_TileIndex: 40
      m_TileSpriteIndex: 40
      m_TileMatrixIndex: 0
      m_TileColorIndex: 0
      m_ObjectToInstantiate: {fileID: 0}
      m_TileFlags: 1
      m_ColliderType: 1
  - first: {x: 2, y: -3, z: 0}
    second:
      m_TileIndex: 41
      m_TileSpriteIndex: 41
      m_TileMatrixIndex: 0
      m_TileColorIndex: 0
      m_ObjectToInstantiate: {fileID: 0}
      m_TileFlags: 1
      m_ColliderType: 1
  - first: {x: 3, y: -3, z: 0}
    second:
      m_TileIndex: 42
      m_TileSpriteIndex: 42
      m_TileMatrixIndex: 0
      m_TileColorIndex: 0
      m_ObjectToInstantiate: {fileID: 0}
      m_TileFlags: 1
      m_ColliderType: 1
  - first: {x: 4, y: -3, z: 0}
    second:
      m_TileIndex: 43
      m_TileSpriteIndex: 43
      m_TileMatrixIndex: 0
      m_TileColorIndex: 0
      m_ObjectToInstantiate: {fileID: 0}
      m_TileFlags: 1
      m_ColliderType: 1
  - first: {x: 5, y: -3, z: 0}
    second:
      m_TileIndex: 44
      m_TileSpriteIndex: 44
      m_TileMatrixIndex: 0
      m_TileColorIndex: 0
      m_ObjectToInstantiate: {fileID: 0}
      m_TileFlags: 1
      m_ColliderType: 1
  - first: {x: 6, y: -3, z: 0}
    second:
      m_TileIndex: 45
      m_TileSpriteIndex: 45
      m_TileMatrixIndex: 0
      m_TileColorIndex: 0
      m_ObjectToInstantiate: {fileID: 0}
      m_TileFlags: 1
      m_ColliderType: 1
  - first: {x: 7, y: -3, z: 0}
    second:
      m_TileIndex: 46
      m_TileSpriteIndex: 46
      m_TileMatrixIndex: 0
      m_TileColorIndex: 0
      m_ObjectToInstantiate: {fileID: 0}
      m_TileFlags: 1
      m_ColliderType: 1
  - first: {x: 8, y: -3, z: 0}
    second:
      m_TileIndex: 47
      m_TileSpriteIndex: 47
      m_TileMatrixIndex: 0
      m_TileColorIndex: 0
      m_ObjectToInstantiate: {fileID: 0}
      m_TileFlags: 1
      m_ColliderType: 1
  - first: {x: 9, y: -3, z: 0}
    second:
      m_TileIndex: 48
      m_TileSpriteIndex: 48
      m_TileMatrixIndex: 0
      m_TileColorIndex: 0
      m_ObjectToInstantiate: {fileID: 0}
      m_TileFlags: 1
      m_ColliderType: 1
  - first: {x: 10, y: -3, z: 0}
    second:
      m_TileIndex: 49
      m_TileSpriteIndex: 49
      m_TileMatrixIndex: 0
      m_TileColorIndex: 0
      m_ObjectToInstantiate: {fileID: 0}
      m_TileFlags: 1
      m_ColliderType: 1
  - first: {x: -1, y: -2, z: 0}
    second:
      m_TileIndex: 26
      m_TileSpriteIndex: 26
      m_TileMatrixIndex: 0
      m_TileColorIndex: 0
      m_ObjectToInstantiate: {fileID: 0}
      m_TileFlags: 1
      m_ColliderType: 1
  - first: {x: 0, y: -2, z: 0}
    second:
      m_TileIndex: 27
      m_TileSpriteIndex: 27
      m_TileMatrixIndex: 0
      m_TileColorIndex: 0
      m_ObjectToInstantiate: {fileID: 0}
      m_TileFlags: 1
      m_ColliderType: 1
  - first: {x: 1, y: -2, z: 0}
    second:
      m_TileIndex: 28
      m_TileSpriteIndex: 28
      m_TileMatrixIndex: 0
      m_TileColorIndex: 0
      m_ObjectToInstantiate: {fileID: 0}
      m_TileFlags: 1
      m_ColliderType: 1
  - first: {x: 2, y: -2, z: 0}
    second:
      m_TileIndex: 29
      m_TileSpriteIndex: 29
      m_TileMatrixIndex: 0
      m_TileColorIndex: 0
      m_ObjectToInstantiate: {fileID: 0}
      m_TileFlags: 1
      m_ColliderType: 1
  - first: {x: 3, y: -2, z: 0}
    second:
      m_TileIndex: 30
      m_TileSpriteIndex: 30
      m_TileMatrixIndex: 0
      m_TileColorIndex: 0
      m_ObjectToInstantiate: {fileID: 0}
      m_TileFlags: 1
      m_ColliderType: 1
  - first: {x: 4, y: -2, z: 0}
    second:
      m_TileIndex: 31
      m_TileSpriteIndex: 31
      m_TileMatrixIndex: 0
      m_TileColorIndex: 0
      m_ObjectToInstantiate: {fileID: 0}
      m_TileFlags: 1
      m_ColliderType: 1
  - first: {x: 5, y: -2, z: 0}
    second:
      m_TileIndex: 32
      m_TileSpriteIndex: 32
      m_TileMatrixIndex: 0
      m_TileColorIndex: 0
      m_ObjectToInstantiate: {fileID: 0}
      m_TileFlags: 1
      m_ColliderType: 1
  - first: {x: 6, y: -2, z: 0}
    second:
      m_TileIndex: 33
      m_TileSpriteIndex: 33
      m_TileMatrixIndex: 0
      m_TileColorIndex: 0
      m_ObjectToInstantiate: {fileID: 0}
      m_TileFlags: 1
      m_ColliderType: 1
  - first: {x: 7, y: -2, z: 0}
    second:
      m_TileIndex: 34
      m_TileSpriteIndex: 34
      m_TileMatrixIndex: 0
      m_TileColorIndex: 0
      m_ObjectToInstantiate: {fileID: 0}
      m_TileFlags: 1
      m_ColliderType: 1
  - first: {x: 8, y: -2, z: 0}
    second:
      m_TileIndex: 35
      m_TileSpriteIndex: 35
      m_TileMatrixIndex: 0
      m_TileColorIndex: 0
      m_ObjectToInstantiate: {fileID: 0}
      m_TileFlags: 1
      m_ColliderType: 1
  - first: {x: 9, y: -2, z: 0}
    second:
      m_TileIndex: 36
      m_TileSpriteIndex: 36
      m_TileMatrixIndex: 0
      m_TileColorIndex: 0
      m_ObjectToInstantiate: {fileID: 0}
      m_TileFlags: 1
      m_ColliderType: 1
  - first: {x: 10, y: -2, z: 0}
    second:
      m_TileIndex: 37
      m_TileSpriteIndex: 37
      m_TileMatrixIndex: 0
      m_TileColorIndex: 0
      m_ObjectToInstantiate: {fileID: 0}
      m_TileFlags: 1
      m_ColliderType: 1
  - first: {x: -1, y: -1, z: 0}
    second:
      m_TileIndex: 13
      m_TileSpriteIndex: 13
      m_TileMatrixIndex: 0
      m_TileColorIndex: 0
      m_ObjectToInstantiate: {fileID: 0}
      m_TileFlags: 1
      m_ColliderType: 1
  - first: {x: 0, y: -1, z: 0}
    second:
      m_TileIndex: 14
      m_TileSpriteIndex: 14
      m_TileMatrixIndex: 0
      m_TileColorIndex: 0
      m_ObjectToInstantiate: {fileID: 0}
      m_TileFlags: 1
      m_ColliderType: 1
  - first: {x: 1, y: -1, z: 0}
    second:
      m_TileIndex: 15
      m_TileSpriteIndex: 15
      m_TileMatrixIndex: 0
      m_TileColorIndex: 0
      m_ObjectToInstantiate: {fileID: 0}
      m_TileFlags: 1
      m_ColliderType: 1
  - first: {x: 2, y: -1, z: 0}
    second:
      m_TileIndex: 16
      m_TileSpriteIndex: 16
      m_TileMatrixIndex: 0
      m_TileColorIndex: 0
      m_ObjectToInstantiate: {fileID: 0}
      m_TileFlags: 1
      m_ColliderType: 1
  - first: {x: 3, y: -1, z: 0}
    second:
      m_TileIndex: 17
      m_TileSpriteIndex: 17
      m_TileMatrixIndex: 0
      m_TileColorIndex: 0
      m_ObjectToInstantiate: {fileID: 0}
      m_TileFlags: 1
      m_ColliderType: 1
  - first: {x: 4, y: -1, z: 0}
    second:
      m_TileIndex: 18
      m_TileSpriteIndex: 18
      m_TileMatrixIndex: 0
      m_TileColorIndex: 0
      m_ObjectToInstantiate: {fileID: 0}
      m_TileFlags: 1
      m_ColliderType: 1
  - first: {x: 5, y: -1, z: 0}
    second:
      m_TileIndex: 19
      m_TileSpriteIndex: 19
      m_TileMatrixIndex: 0
      m_TileColorIndex: 0
      m_ObjectToInstantiate: {fileID: 0}
      m_TileFlags: 1
      m_ColliderType: 1
  - first: {x: 6, y: -1, z: 0}
    second:
      m_TileIndex: 20
      m_TileSpriteIndex: 20
      m_TileMatrixIndex: 0
      m_TileColorIndex: 0
      m_ObjectToInstantiate: {fileID: 0}
      m_TileFlags: 1
      m_ColliderType: 1
  - first: {x: 7, y: -1, z: 0}
    second:
      m_TileIndex: 21
      m_TileSpriteIndex: 21
      m_TileMatrixIndex: 0
      m_TileColorIndex: 0
      m_ObjectToInstantiate: {fileID: 0}
      m_TileFlags: 1
      m_ColliderType: 1
  - first: {x: 8, y: -1, z: 0}
    second:
      m_TileIndex: 22
      m_TileSpriteIndex: 22
      m_TileMatrixIndex: 0
      m_TileColorIndex: 0
      m_ObjectToInstantiate: {fileID: 0}
      m_TileFlags: 1
      m_ColliderType: 1
  - first: {x: 9, y: -1, z: 0}
    second:
      m_TileIndex: 23
      m_TileSpriteIndex: 23
      m_TileMatrixIndex: 0
      m_TileColorIndex: 0
      m_ObjectToInstantiate: {fileID: 0}
      m_TileFlags: 1
      m_ColliderType: 1
  - first: {x: 10, y: -1, z: 0}
    second:
      m_TileIndex: 24
      m_TileSpriteIndex: 24
      m_TileMatrixIndex: 0
      m_TileColorIndex: 0
      m_ObjectToInstantiate: {fileID: 0}
      m_TileFlags: 1
      m_ColliderType: 1
  - first: {x: 11, y: -1, z: 0}
    second:
      m_TileIndex: 25
      m_TileSpriteIndex: 25
      m_TileMatrixIndex: 0
      m_TileColorIndex: 0
      m_ObjectToInstantiate: {fileID: 0}
      m_TileFlags: 1
      m_ColliderType: 1
  - first: {x: -1, y: 0, z: 0}
    second:
      m_TileIndex: 0
      m_TileSpriteIndex: 0
      m_TileMatrixIndex: 0
      m_TileColorIndex: 0
      m_ObjectToInstantiate: {fileID: 0}
      m_TileFlags: 1
      m_ColliderType: 1
  - first: {x: 0, y: 0, z: 0}
    second:
      m_TileIndex: 1
      m_TileSpriteIndex: 1
      m_TileMatrixIndex: 0
      m_TileColorIndex: 0
      m_ObjectToInstantiate: {fileID: 0}
      m_TileFlags: 1
      m_ColliderType: 1
  - first: {x: 1, y: 0, z: 0}
    second:
      m_TileIndex: 2
      m_TileSpriteIndex: 2
      m_TileMatrixIndex: 0
      m_TileColorIndex: 0
      m_ObjectToInstantiate: {fileID: 0}
      m_TileFlags: 1
      m_ColliderType: 1
  - first: {x: 2, y: 0, z: 0}
    second:
      m_TileIndex: 3
      m_TileSpriteIndex: 3
      m_TileMatrixIndex: 0
      m_TileColorIndex: 0
      m_ObjectToInstantiate: {fileID: 0}
      m_TileFlags: 1
      m_ColliderType: 1
  - first: {x: 3, y: 0, z: 0}
    second:
      m_TileIndex: 4
      m_TileSpriteIndex: 4
      m_TileMatrixIndex: 0
      m_TileColorIndex: 0
      m_ObjectToInstantiate: {fileID: 0}
      m_TileFlags: 1
      m_ColliderType: 1
  - first: {x: 4, y: 0, z: 0}
    second:
      m_TileIndex: 5
      m_TileSpriteIndex: 5
      m_TileMatrixIndex: 0
      m_TileColorIndex: 0
      m_ObjectToInstantiate: {fileID: 0}
      m_TileFlags: 1
      m_ColliderType: 1
  - first: {x: 5, y: 0, z: 0}
    second:
      m_TileIndex: 6
      m_TileSpriteIndex: 6
      m_TileMatrixIndex: 0
      m_TileColorIndex: 0
      m_ObjectToInstantiate: {fileID: 0}
      m_TileFlags: 1
      m_ColliderType: 1
  - first: {x: 6, y: 0, z: 0}
    second:
      m_TileIndex: 7
      m_TileSpriteIndex: 7
      m_TileMatrixIndex: 0
      m_TileColorIndex: 0
      m_ObjectToInstantiate: {fileID: 0}
      m_TileFlags: 1
      m_ColliderType: 1
  - first: {x: 7, y: 0, z: 0}
    second:
      m_TileIndex: 8
      m_TileSpriteIndex: 8
      m_TileMatrixIndex: 0
      m_TileColorIndex: 0
      m_ObjectToInstantiate: {fileID: 0}
      m_TileFlags: 1
      m_ColliderType: 1
  - first: {x: 8, y: 0, z: 0}
    second:
      m_TileIndex: 9
      m_TileSpriteIndex: 9
      m_TileMatrixIndex: 0
      m_TileColorIndex: 0
      m_ObjectToInstantiate: {fileID: 0}
      m_TileFlags: 1
      m_ColliderType: 1
  - first: {x: 9, y: 0, z: 0}
    second:
      m_TileIndex: 10
      m_TileSpriteIndex: 10
      m_TileMatrixIndex: 0
      m_TileColorIndex: 0
      m_ObjectToInstantiate: {fileID: 0}
      m_TileFlags: 1
      m_ColliderType: 1
  - first: {x: 10, y: 0, z: 0}
    second:
      m_TileIndex: 11
      m_TileSpriteIndex: 11
      m_TileMatrixIndex: 0
      m_TileColorIndex: 0
      m_ObjectToInstantiate: {fileID: 0}
      m_TileFlags: 1
      m_ColliderType: 1
  - first: {x: 11, y: 0, z: 0}
    second:
      m_TileIndex: 12
      m_TileSpriteIndex: 12
      m_TileMatrixIndex: 0
      m_TileColorIndex: 0
      m_ObjectToInstantiate: {fileID: 0}
      m_TileFlags: 1
      m_ColliderType: 1
  m_AnimatedTiles: {}
  m_TileAssetArray:
  - m_RefCount: 1
    m_Data: {fileID: 11400000, guid: 77ba82425a484e04d88ffd2c06911408, type: 2}
  - m_RefCount: 1
    m_Data: {fileID: 11400000, guid: fe6ee04113512c241a3895743bf4d69a, type: 2}
  - m_RefCount: 1
    m_Data: {fileID: 11400000, guid: 337a1077c34fdd9488043042102dd0fe, type: 2}
  - m_RefCount: 1
    m_Data: {fileID: 11400000, guid: 0b818b787e9d9ac4ebef0cbcabf0614f, type: 2}
  - m_RefCount: 1
    m_Data: {fileID: 11400000, guid: 0dff32c19dd35ea42af3785d0a5e0b09, type: 2}
  - m_RefCount: 1
    m_Data: {fileID: 11400000, guid: 24b9632be38f07d45a845ad9ee8561ef, type: 2}
  - m_RefCount: 1
    m_Data: {fileID: 11400000, guid: 8497f556d73903e44a6fe7187c388ac8, type: 2}
  - m_RefCount: 1
    m_Data: {fileID: 11400000, guid: 036a7d62ccf43da45a4f098cc7df6e04, type: 2}
  - m_RefCount: 1
    m_Data: {fileID: 11400000, guid: c14c3396dc4359b4baaa791688488b29, type: 2}
  - m_RefCount: 1
    m_Data: {fileID: 11400000, guid: c2097c4d9927ac7458afb180f6f77588, type: 2}
  - m_RefCount: 1
    m_Data: {fileID: 11400000, guid: 6a67490ab84de154ebbb7962b8d0c07f, type: 2}
  - m_RefCount: 1
    m_Data: {fileID: 11400000, guid: 3b654274bc6cc654b92508e06811285d, type: 2}
  - m_RefCount: 1
    m_Data: {fileID: 11400000, guid: a8732a0467242944ea5d9c209646eef2, type: 2}
  - m_RefCount: 1
    m_Data: {fileID: 11400000, guid: 921086b710a53a2499c9b4511fff291b, type: 2}
  - m_RefCount: 1
    m_Data: {fileID: 11400000, guid: 7e2094acdf20b8848808250de71f5195, type: 2}
  - m_RefCount: 1
    m_Data: {fileID: 11400000, guid: 801248df92be0bf4e9cc05d6b016783e, type: 2}
  - m_RefCount: 1
    m_Data: {fileID: 11400000, guid: 42abca7be21e3624e94b53c70e2e6720, type: 2}
  - m_RefCount: 1
    m_Data: {fileID: 11400000, guid: 2e331715eca8eb04086b08f6372c7508, type: 2}
  - m_RefCount: 1
    m_Data: {fileID: 11400000, guid: c9011ed79ea16044e853a19d0e1fc256, type: 2}
  - m_RefCount: 1
    m_Data: {fileID: 11400000, guid: 9383b76f5f82fec4e898eccd13366b82, type: 2}
  - m_RefCount: 1
    m_Data: {fileID: 11400000, guid: bafb8bd0163cafa4fbde73fb05a222ca, type: 2}
  - m_RefCount: 1
    m_Data: {fileID: 11400000, guid: 07d6668b51f2b0540817afcdc8959202, type: 2}
  - m_RefCount: 1
    m_Data: {fileID: 11400000, guid: d01a50681b608964b914ff9100f42067, type: 2}
  - m_RefCount: 1
    m_Data: {fileID: 11400000, guid: a8487b2b3e52c624a819cb285c145d5a, type: 2}
  - m_RefCount: 1
    m_Data: {fileID: 11400000, guid: a8c294d5d3a64f2408ab604b2513de7d, type: 2}
  - m_RefCount: 1
    m_Data: {fileID: 11400000, guid: 9684b32a041add343b1a07eb1ca321eb, type: 2}
  - m_RefCount: 1
    m_Data: {fileID: 11400000, guid: 6a28d8fa37739c94998791a216c654fb, type: 2}
  - m_RefCount: 1
    m_Data: {fileID: 11400000, guid: 4510d9542a661d64eac9dddf1a46b61a, type: 2}
  - m_RefCount: 1
    m_Data: {fileID: 11400000, guid: c1fc3e0de9bbf654bb0128a64dca6c3b, type: 2}
  - m_RefCount: 1
    m_Data: {fileID: 11400000, guid: 40860e14c0ea8cc49b82c9564de79e0e, type: 2}
  - m_RefCount: 1
    m_Data: {fileID: 11400000, guid: c7183e93445c7224eb07ed475fd94186, type: 2}
  - m_RefCount: 1
    m_Data: {fileID: 11400000, guid: 9160f6f78cb53f343bee4e68e74802cb, type: 2}
  - m_RefCount: 1
    m_Data: {fileID: 11400000, guid: 0b6443f9962b96e439a47ce5de96ebca, type: 2}
  - m_RefCount: 1
    m_Data: {fileID: 11400000, guid: 2b89333a4272b5045b35f81568584948, type: 2}
  - m_RefCount: 1
    m_Data: {fileID: 11400000, guid: 5768470dcf9751640a4eb94daf3e1cb6, type: 2}
  - m_RefCount: 1
    m_Data: {fileID: 11400000, guid: 8ac3364341e8e774ebefba30e431df86, type: 2}
  - m_RefCount: 1
    m_Data: {fileID: 11400000, guid: d8db900163a930744b3edb332e855987, type: 2}
  - m_RefCount: 1
    m_Data: {fileID: 11400000, guid: 2cd5d96a334fc6845a1b22368d411ba7, type: 2}
  - m_RefCount: 1
    m_Data: {fileID: 11400000, guid: 8194914badc2de84fa414bc4d6d54b01, type: 2}
  - m_RefCount: 1
    m_Data: {fileID: 11400000, guid: 729d7e20961122747a8b5ea98ee3ad2e, type: 2}
  - m_RefCount: 1
    m_Data: {fileID: 11400000, guid: ceb5b5a17e5514b4dafce914fe281066, type: 2}
  - m_RefCount: 1
    m_Data: {fileID: 11400000, guid: 8ada7adb59177ed4190c753a78ea8625, type: 2}
  - m_RefCount: 1
    m_Data: {fileID: 11400000, guid: ebff50f5018968940920b360fefd951b, type: 2}
  - m_RefCount: 1
    m_Data: {fileID: 11400000, guid: 4b972c9678eb0b04a981b8c499fa09eb, type: 2}
  - m_RefCount: 1
    m_Data: {fileID: 11400000, guid: d5e3cb2a68921dd438fb9543b144ffd1, type: 2}
  - m_RefCount: 1
    m_Data: {fileID: 11400000, guid: 643a96f5a12d47048a512b317dba6703, type: 2}
  - m_RefCount: 1
    m_Data: {fileID: 11400000, guid: a412755f18e5fef4ca26818ecc7f8207, type: 2}
  - m_RefCount: 1
    m_Data: {fileID: 11400000, guid: b405b91d12d574c46870b04c48f0b0f5, type: 2}
  - m_RefCount: 1
    m_Data: {fileID: 11400000, guid: 993745909b80d9b41ada1249c060a042, type: 2}
  - m_RefCount: 1
    m_Data: {fileID: 11400000, guid: b7c47d65028acea4b81b2202ce139eec, type: 2}
  - m_RefCount: 1
    m_Data: {fileID: 11400000, guid: 7463cc667d615804e8e65c4df6b9b3f5, type: 2}
  - m_RefCount: 1
    m_Data: {fileID: 11400000, guid: 896cc9c0c1015654f8c3252c50b5a776, type: 2}
  - m_RefCount: 1
    m_Data: {fileID: 11400000, guid: 897464eb92f12b84b9be1de3ed637284, type: 2}
  - m_RefCount: 1
    m_Data: {fileID: 11400000, guid: a56cfd6b47d239241ae4ef170c47f418, type: 2}
  - m_RefCount: 1
    m_Data: {fileID: 11400000, guid: f909bccacbaad0c44af2d5edbb3bf7aa, type: 2}
  - m_RefCount: 1
    m_Data: {fileID: 11400000, guid: 55b24c8f5a4d0614985dbab8b1b5f7b4, type: 2}
  - m_RefCount: 1
    m_Data: {fileID: 11400000, guid: 610d79369387e20459c4060a7b78797e, type: 2}
  - m_RefCount: 1
    m_Data: {fileID: 11400000, guid: ac7bfdf1410d5e245a063af12573b66b, type: 2}
  - m_RefCount: 1
    m_Data: {fileID: 11400000, guid: 68424d01d5d786c408de970f0a2d732e, type: 2}
  - m_RefCount: 1
    m_Data: {fileID: 11400000, guid: 5c0bd0957ac358a45af4b984dee93c98, type: 2}
  - m_RefCount: 1
    m_Data: {fileID: 11400000, guid: f9567e9c8fa58874695fddb606eb7b68, type: 2}
  - m_RefCount: 1
    m_Data: {fileID: 11400000, guid: 1a57f85c5fb42d44a8295810b7cb4852, type: 2}
  - m_RefCount: 1
    m_Data: {fileID: 11400000, guid: 7ed391a418fbe374c904f32827cb8e40, type: 2}
  - m_RefCount: 1
    m_Data: {fileID: 11400000, guid: a7b3db567a0d14d459a47f2749e5e5b8, type: 2}
  - m_RefCount: 1
    m_Data: {fileID: 11400000, guid: fd9bf5f556afbd845b1e7b24e4c24ac7, type: 2}
  - m_RefCount: 1
    m_Data: {fileID: 11400000, guid: 1d53bf01e047c2b40b811511892502e0, type: 2}
  - m_RefCount: 1
    m_Data: {fileID: 11400000, guid: 9d60c65206b95fd40a9d47632b53e5e7, type: 2}
  - m_RefCount: 1
    m_Data: {fileID: 11400000, guid: d74f7551894c5c347b00651ccb71d97f, type: 2}
  - m_RefCount: 1
    m_Data: {fileID: 11400000, guid: ac62d7a9fe3471041958b17484a22b23, type: 2}
  - m_RefCount: 1
    m_Data: {fileID: 11400000, guid: 17b2569e49b16d545a44272040527eb3, type: 2}
  - m_RefCount: 1
    m_Data: {fileID: 11400000, guid: d733d44b52a80414684c5a9ff5979da9, type: 2}
  - m_RefCount: 1
    m_Data: {fileID: 11400000, guid: 50260fb10f8178a419ecfdf8a61317c0, type: 2}
  - m_RefCount: 1
    m_Data: {fileID: 11400000, guid: d8d90fc72fa701c418244bfbccdb7e2a, type: 2}
  - m_RefCount: 1
    m_Data: {fileID: 11400000, guid: 03b3a35668aa8494182341212beea04c, type: 2}
  - m_RefCount: 1
    m_Data: {fileID: 11400000, guid: 9d8d97d692ed58e4e8f0ed6e9ff0dcad, type: 2}
  - m_RefCount: 1
    m_Data: {fileID: 11400000, guid: f6f6e8ffd7e1018459593476507dec38, type: 2}
  - m_RefCount: 1
    m_Data: {fileID: 11400000, guid: a713200ff6a5dcf4b841e5165afa80ee, type: 2}
  - m_RefCount: 1
    m_Data: {fileID: 11400000, guid: d7e7b8745b434534494008b6f07e18c4, type: 2}
  - m_RefCount: 1
    m_Data: {fileID: 11400000, guid: 913ce45169068af40bd3aa19b713d842, type: 2}
  - m_RefCount: 1
    m_Data: {fileID: 11400000, guid: 12c52351ebc79054cacecb100cf90192, type: 2}
  - m_RefCount: 1
    m_Data: {fileID: 11400000, guid: 5c27b650e9c0d634797a160591603036, type: 2}
  - m_RefCount: 1
    m_Data: {fileID: 11400000, guid: 9e44ccbaf76b6af48b66175f09f5e76f, type: 2}
  - m_RefCount: 1
    m_Data: {fileID: 11400000, guid: 5a869aaf51a5f2648a9d5fcd56e7238b, type: 2}
  - m_RefCount: 1
    m_Data: {fileID: 11400000, guid: 32e6674e91a3c7c4cbfa3fe1b97d0594, type: 2}
  - m_RefCount: 1
    m_Data: {fileID: 11400000, guid: 028f62cd0dde7e34690fa9162dc66e82, type: 2}
  m_TileSpriteArray:
  - m_RefCount: 1
    m_Data: {fileID: -3675717388011300749, guid: b041cfd0a5e48f445b8046ae200580dd,
      type: 3}
  - m_RefCount: 1
    m_Data: {fileID: 1497654537045197512, guid: b041cfd0a5e48f445b8046ae200580dd,
      type: 3}
  - m_RefCount: 1
    m_Data: {fileID: -2971560487978958717, guid: b041cfd0a5e48f445b8046ae200580dd,
      type: 3}
  - m_RefCount: 1
    m_Data: {fileID: 1194775552194177182, guid: b041cfd0a5e48f445b8046ae200580dd,
      type: 3}
  - m_RefCount: 1
    m_Data: {fileID: -67260320283365526, guid: b041cfd0a5e48f445b8046ae200580dd, type: 3}
  - m_RefCount: 1
    m_Data: {fileID: -2297678339837889277, guid: b041cfd0a5e48f445b8046ae200580dd,
      type: 3}
  - m_RefCount: 1
    m_Data: {fileID: -2669738015307646140, guid: b041cfd0a5e48f445b8046ae200580dd,
      type: 3}
  - m_RefCount: 1
    m_Data: {fileID: -5343778567584597206, guid: b041cfd0a5e48f445b8046ae200580dd,
      type: 3}
  - m_RefCount: 1
    m_Data: {fileID: 198327761963240103, guid: b041cfd0a5e48f445b8046ae200580dd, type: 3}
  - m_RefCount: 1
    m_Data: {fileID: 7603596860735191224, guid: b041cfd0a5e48f445b8046ae200580dd,
      type: 3}
  - m_RefCount: 1
    m_Data: {fileID: -2791041982528332784, guid: b041cfd0a5e48f445b8046ae200580dd,
      type: 3}
  - m_RefCount: 1
    m_Data: {fileID: -4917246509589660587, guid: b041cfd0a5e48f445b8046ae200580dd,
      type: 3}
  - m_RefCount: 1
    m_Data: {fileID: -6343519296654054873, guid: b041cfd0a5e48f445b8046ae200580dd,
      type: 3}
  - m_RefCount: 1
    m_Data: {fileID: 5802382940043802597, guid: b041cfd0a5e48f445b8046ae200580dd,
      type: 3}
  - m_RefCount: 1
    m_Data: {fileID: -1680656839057344312, guid: b041cfd0a5e48f445b8046ae200580dd,
      type: 3}
  - m_RefCount: 1
    m_Data: {fileID: -8718846420707220360, guid: b041cfd0a5e48f445b8046ae200580dd,
      type: 3}
  - m_RefCount: 1
    m_Data: {fileID: -1020003207166317292, guid: b041cfd0a5e48f445b8046ae200580dd,
      type: 3}
  - m_RefCount: 1
    m_Data: {fileID: 2498972166423581701, guid: b041cfd0a5e48f445b8046ae200580dd,
      type: 3}
  - m_RefCount: 1
    m_Data: {fileID: -9019370586224916440, guid: b041cfd0a5e48f445b8046ae200580dd,
      type: 3}
  - m_RefCount: 1
    m_Data: {fileID: 4582258180007055615, guid: b041cfd0a5e48f445b8046ae200580dd,
      type: 3}
  - m_RefCount: 1
    m_Data: {fileID: -3053032850354778017, guid: b041cfd0a5e48f445b8046ae200580dd,
      type: 3}
  - m_RefCount: 1
    m_Data: {fileID: 2000318658764212219, guid: b041cfd0a5e48f445b8046ae200580dd,
      type: 3}
  - m_RefCount: 1
    m_Data: {fileID: -7131194573353445407, guid: b041cfd0a5e48f445b8046ae200580dd,
      type: 3}
  - m_RefCount: 1
    m_Data: {fileID: -8671202371429318906, guid: b041cfd0a5e48f445b8046ae200580dd,
      type: 3}
  - m_RefCount: 1
    m_Data: {fileID: 9118974377659613285, guid: b041cfd0a5e48f445b8046ae200580dd,
      type: 3}
  - m_RefCount: 1
    m_Data: {fileID: 7168705448075581056, guid: b041cfd0a5e48f445b8046ae200580dd,
      type: 3}
  - m_RefCount: 1
    m_Data: {fileID: 3108537083571099360, guid: b041cfd0a5e48f445b8046ae200580dd,
      type: 3}
  - m_RefCount: 1
    m_Data: {fileID: 5359956806324251708, guid: b041cfd0a5e48f445b8046ae200580dd,
      type: 3}
  - m_RefCount: 1
    m_Data: {fileID: -2102368444492911589, guid: b041cfd0a5e48f445b8046ae200580dd,
      type: 3}
  - m_RefCount: 1
    m_Data: {fileID: 5613609842964036939, guid: b041cfd0a5e48f445b8046ae200580dd,
      type: 3}
  - m_RefCount: 1
    m_Data: {fileID: 3139700333482706574, guid: b041cfd0a5e48f445b8046ae200580dd,
      type: 3}
  - m_RefCount: 1
    m_Data: {fileID: 5515580552219433423, guid: b041cfd0a5e48f445b8046ae200580dd,
      type: 3}
  - m_RefCount: 1
    m_Data: {fileID: -8447794606436959138, guid: b041cfd0a5e48f445b8046ae200580dd,
      type: 3}
  - m_RefCount: 1
    m_Data: {fileID: 4616144251219174747, guid: b041cfd0a5e48f445b8046ae200580dd,
      type: 3}
  - m_RefCount: 1
    m_Data: {fileID: -6793467927654196686, guid: b041cfd0a5e48f445b8046ae200580dd,
      type: 3}
  - m_RefCount: 1
    m_Data: {fileID: -3843204344904844177, guid: b041cfd0a5e48f445b8046ae200580dd,
      type: 3}
  - m_RefCount: 1
    m_Data: {fileID: -6281372894776990157, guid: b041cfd0a5e48f445b8046ae200580dd,
      type: 3}
  - m_RefCount: 1
    m_Data: {fileID: 7803244411431362681, guid: b041cfd0a5e48f445b8046ae200580dd,
      type: 3}
  - m_RefCount: 1
    m_Data: {fileID: 3575207316984784501, guid: b041cfd0a5e48f445b8046ae200580dd,
      type: 3}
  - m_RefCount: 1
    m_Data: {fileID: -4265210035970821296, guid: b041cfd0a5e48f445b8046ae200580dd,
      type: 3}
  - m_RefCount: 1
    m_Data: {fileID: 7793541705929876910, guid: b041cfd0a5e48f445b8046ae200580dd,
      type: 3}
  - m_RefCount: 1
    m_Data: {fileID: 2127383828125186975, guid: b041cfd0a5e48f445b8046ae200580dd,
      type: 3}
  - m_RefCount: 1
    m_Data: {fileID: -7121774993602184644, guid: b041cfd0a5e48f445b8046ae200580dd,
      type: 3}
  - m_RefCount: 1
    m_Data: {fileID: 9073414659263081520, guid: b041cfd0a5e48f445b8046ae200580dd,
      type: 3}
  - m_RefCount: 1
    m_Data: {fileID: 8054355832321402330, guid: b041cfd0a5e48f445b8046ae200580dd,
      type: 3}
  - m_RefCount: 1
    m_Data: {fileID: 7604668463972655609, guid: b041cfd0a5e48f445b8046ae200580dd,
      type: 3}
  - m_RefCount: 1
    m_Data: {fileID: -7365346576805866900, guid: b041cfd0a5e48f445b8046ae200580dd,
      type: 3}
  - m_RefCount: 1
    m_Data: {fileID: -6625809044397681302, guid: b041cfd0a5e48f445b8046ae200580dd,
      type: 3}
  - m_RefCount: 1
    m_Data: {fileID: -3907501461650199765, guid: b041cfd0a5e48f445b8046ae200580dd,
      type: 3}
  - m_RefCount: 1
    m_Data: {fileID: 4869644437843835221, guid: b041cfd0a5e48f445b8046ae200580dd,
      type: 3}
  - m_RefCount: 1
    m_Data: {fileID: 8520943869987402425, guid: b041cfd0a5e48f445b8046ae200580dd,
      type: 3}
  - m_RefCount: 1
    m_Data: {fileID: -7582207473722716598, guid: b041cfd0a5e48f445b8046ae200580dd,
      type: 3}
  - m_RefCount: 1
    m_Data: {fileID: 113466129880461321, guid: b041cfd0a5e48f445b8046ae200580dd, type: 3}
  - m_RefCount: 1
    m_Data: {fileID: 6382302790431110032, guid: b041cfd0a5e48f445b8046ae200580dd,
      type: 3}
  - m_RefCount: 1
    m_Data: {fileID: -5701913029375915191, guid: b041cfd0a5e48f445b8046ae200580dd,
      type: 3}
  - m_RefCount: 1
    m_Data: {fileID: -2438843658756123571, guid: b041cfd0a5e48f445b8046ae200580dd,
      type: 3}
  - m_RefCount: 1
    m_Data: {fileID: 4418268933478749330, guid: b041cfd0a5e48f445b8046ae200580dd,
      type: 3}
  - m_RefCount: 1
    m_Data: {fileID: -3339002421412037762, guid: b041cfd0a5e48f445b8046ae200580dd,
      type: 3}
  - m_RefCount: 1
    m_Data: {fileID: 2330615992907441848, guid: b041cfd0a5e48f445b8046ae200580dd,
      type: 3}
  - m_RefCount: 1
    m_Data: {fileID: 6539738197558432422, guid: b041cfd0a5e48f445b8046ae200580dd,
      type: 3}
  - m_RefCount: 1
    m_Data: {fileID: 5543355331481416411, guid: b041cfd0a5e48f445b8046ae200580dd,
      type: 3}
  - m_RefCount: 1
    m_Data: {fileID: -329807682860033722, guid: b041cfd0a5e48f445b8046ae200580dd,
      type: 3}
  - m_RefCount: 1
    m_Data: {fileID: 736037565102701571, guid: b041cfd0a5e48f445b8046ae200580dd, type: 3}
  - m_RefCount: 1
    m_Data: {fileID: 7407790550092901962, guid: b041cfd0a5e48f445b8046ae200580dd,
      type: 3}
  - m_RefCount: 1
    m_Data: {fileID: 7571522258589489921, guid: b041cfd0a5e48f445b8046ae200580dd,
      type: 3}
  - m_RefCount: 1
    m_Data: {fileID: 365240933877879282, guid: b041cfd0a5e48f445b8046ae200580dd, type: 3}
  - m_RefCount: 1
    m_Data: {fileID: 6484311554862978555, guid: b041cfd0a5e48f445b8046ae200580dd,
      type: 3}
  - m_RefCount: 1
    m_Data: {fileID: -3015883018749221715, guid: b041cfd0a5e48f445b8046ae200580dd,
      type: 3}
  - m_RefCount: 1
    m_Data: {fileID: -8233407340692220617, guid: b041cfd0a5e48f445b8046ae200580dd,
      type: 3}
  - m_RefCount: 1
    m_Data: {fileID: 4131542717008771627, guid: b041cfd0a5e48f445b8046ae200580dd,
      type: 3}
  - m_RefCount: 1
    m_Data: {fileID: -8120040315211294159, guid: b041cfd0a5e48f445b8046ae200580dd,
      type: 3}
  - m_RefCount: 1
    m_Data: {fileID: -8077744885297897661, guid: b041cfd0a5e48f445b8046ae200580dd,
      type: 3}
  - m_RefCount: 1
    m_Data: {fileID: 3018018900400578528, guid: b041cfd0a5e48f445b8046ae200580dd,
      type: 3}
  - m_RefCount: 1
    m_Data: {fileID: -3685791462794059503, guid: b041cfd0a5e48f445b8046ae200580dd,
      type: 3}
  - m_RefCount: 1
    m_Data: {fileID: -5673278798345599059, guid: b041cfd0a5e48f445b8046ae200580dd,
      type: 3}
  - m_RefCount: 1
    m_Data: {fileID: -3564777485283095739, guid: b041cfd0a5e48f445b8046ae200580dd,
      type: 3}
  - m_RefCount: 1
    m_Data: {fileID: -5385800999692259534, guid: b041cfd0a5e48f445b8046ae200580dd,
      type: 3}
  - m_RefCount: 1
    m_Data: {fileID: -1364626516741762822, guid: b041cfd0a5e48f445b8046ae200580dd,
      type: 3}
  - m_RefCount: 1
    m_Data: {fileID: -5652490260500242196, guid: b041cfd0a5e48f445b8046ae200580dd,
      type: 3}
  - m_RefCount: 1
    m_Data: {fileID: -3863270000433743358, guid: b041cfd0a5e48f445b8046ae200580dd,
      type: 3}
  - m_RefCount: 1
    m_Data: {fileID: -2652159029634533251, guid: b041cfd0a5e48f445b8046ae200580dd,
      type: 3}
  - m_RefCount: 1
    m_Data: {fileID: -3171826077147836033, guid: b041cfd0a5e48f445b8046ae200580dd,
      type: 3}
  - m_RefCount: 1
    m_Data: {fileID: -9169103410807245697, guid: b041cfd0a5e48f445b8046ae200580dd,
      type: 3}
  - m_RefCount: 1
    m_Data: {fileID: -8159112258552732388, guid: b041cfd0a5e48f445b8046ae200580dd,
      type: 3}
  - m_RefCount: 1
    m_Data: {fileID: 7152219933858350172, guid: b041cfd0a5e48f445b8046ae200580dd,
      type: 3}
  m_TileMatrixArray:
  - m_RefCount: 85
    m_Data:
      e00: 1
      e01: 0
      e02: 0
      e03: 0
      e10: 0
      e11: 1
      e12: 0
      e13: 0
      e20: 0
      e21: 0
      e22: 1
      e23: 0
      e30: 0
      e31: 0
      e32: 0
      e33: 1
  m_TileColorArray:
  - m_RefCount: 85
    m_Data: {r: 1, g: 1, b: 1, a: 1}
  m_AnimationFrameRate: 1
  m_Color: {r: 1, g: 1, b: 1, a: 1}
  m_Origin: {x: -1, y: -6, z: 0}
  m_Size: {x: 14, y: 7, z: 1}
  m_TileAnchor: {x: 0.5, y: 0.5, z: 0}
  m_TileOrientation: 0
  m_TileOrientationMatrix:
    e00: 1
    e01: 0
    e02: 0
    e03: 0
    e10: 0
    e11: 1
    e12: 0
    e13: 0
    e20: 0
    e21: 0
    e22: 1
    e23: 0
    e30: 0
    e31: 0
    e32: 0
    e33: 1
--- !u!483693784 &411612732642686457
TilemapRenderer:
  m_ObjectHideFlags: 0
  m_CorrespondingSourceObject: {fileID: 0}
  m_PrefabInstance: {fileID: 0}
  m_PrefabAsset: {fileID: 0}
  m_GameObject: {fileID: 4017764309398526440}
  m_Enabled: 0
  m_CastShadows: 0
  m_ReceiveShadows: 0
  m_DynamicOccludee: 0
  m_MotionVectors: 1
  m_LightProbeUsage: 0
  m_ReflectionProbeUsage: 0
  m_RenderingLayerMask: 1
  m_RendererPriority: 0
  m_Materials:
  - {fileID: 10754, guid: 0000000000000000f000000000000000, type: 0}
  m_StaticBatchInfo:
    firstSubMesh: 0
    subMeshCount: 0
  m_StaticBatchRoot: {fileID: 0}
  m_ProbeAnchor: {fileID: 0}
  m_LightProbeVolumeOverride: {fileID: 0}
  m_ScaleInLightmap: 1
  m_ReceiveGI: 1
  m_PreserveUVs: 0
  m_IgnoreNormalsForChartDetection: 0
  m_ImportantGI: 0
  m_StitchLightmapSeams: 1
  m_SelectedEditorRenderState: 0
  m_MinimumChartSize: 4
  m_AutoUVMaxDistance: 0.5
  m_AutoUVMaxAngle: 89
  m_LightmapParameters: {fileID: 0}
  m_SortingLayerID: 0
  m_SortingLayer: 0
  m_SortingOrder: 0
  m_ChunkSize: {x: 32, y: 32, z: 32}
  m_ChunkCullingBounds: {x: 0, y: 0, z: 0}
  m_MaxChunkCount: 16
  m_MaxFrameAge: 16
  m_SortOrder: 0
  m_Mode: 0
  m_DetectChunkCullingBounds: 0
  m_MaskInteraction: 0
--- !u!1 &6396301670992277007
GameObject:
  m_ObjectHideFlags: 0
  m_CorrespondingSourceObject: {fileID: 0}
  m_PrefabInstance: {fileID: 0}
  m_PrefabAsset: {fileID: 0}
  serializedVersion: 6
  m_Component:
  - component: {fileID: 7408603461319611281}
  - component: {fileID: 54510753534604348}
  m_Layer: 31
  m_Name: KenneySet
  m_TagString: Untagged
  m_Icon: {fileID: 0}
  m_NavMeshLayer: 0
  m_StaticEditorFlags: 0
  m_IsActive: 1
--- !u!4 &7408603461319611281
Transform:
  m_ObjectHideFlags: 0
  m_CorrespondingSourceObject: {fileID: 0}
  m_PrefabInstance: {fileID: 0}
  m_PrefabAsset: {fileID: 0}
  m_GameObject: {fileID: 6396301670992277007}
  m_LocalRotation: {x: 0, y: 0, z: 0, w: 1}
  m_LocalPosition: {x: 0, y: 0, z: 0}
  m_LocalScale: {x: 1, y: 1, z: 1}
  m_Children:
  - {fileID: 4140169296404560524}
  m_Father: {fileID: 0}
  m_RootOrder: 0
  m_LocalEulerAnglesHint: {x: 0, y: 0, z: 0}
--- !u!156049354 &54510753534604348
Grid:
  m_ObjectHideFlags: 0
  m_CorrespondingSourceObject: {fileID: 0}
  m_PrefabInstance: {fileID: 0}
  m_PrefabAsset: {fileID: 0}
  m_GameObject: {fileID: 6396301670992277007}
  m_Enabled: 1
  m_CellSize: {x: 1, y: 1, z: 0}
  m_CellGap: {x: 0, y: 0, z: 0}
  m_CellLayout: 0
  m_CellSwizzle: 0
--- !u!114 &6487710546283571480
MonoBehaviour:
  m_ObjectHideFlags: 0
  m_CorrespondingSourceObject: {fileID: 0}
  m_PrefabInstance: {fileID: 0}
  m_PrefabAsset: {fileID: 0}
  m_GameObject: {fileID: 0}
  m_Enabled: 1
  m_EditorHideFlags: 0
  m_Script: {fileID: 12395, guid: 0000000000000000e000000000000000, type: 0}
  m_Name: Palette Settings
  m_EditorClassIdentifier: 
  cellSizing: 0
